Display factR2 object data — factR-meta • factR2
…
## Returns metadata of features
features(factRsample)   # from activeSet
#> ℹ Set `show_more to TRUE to show more info`
#> # A tibble: 154 × 8
#>    transcript_id         gene_id        gene_name strand width novel cds   nmd  
#>    <chr>                 <chr>          <chr>     <fct>  <int> <chr> <chr> <chr>
#>  1 ENSMUST00000022746.12 ENSMUSG000000… Osmr      -       5491 no    no    no   
#>  2 ENSMUST00000175862.7  ENSMUSG000000… Osmr      -       2837 no    no    no   
#>  3 ENSMUST00000176554.1  ENSMUSG000000… Osmr      -        908 no    no    no   
#>  4 ENSMUST00000176826.1  ENSMUSG000000… Osmr      -       4028 no    no    no   
#>  5 ENSMUST00000177263.1  ENSMUSG000000… Osmr      -       6160 no    no    no   
#>  6 ENSMUST00000177478.1  ENSMUSG000000… Osmr      -       1727 no    no    no   
#>  7 MSTRG.14573.1         ENSMUSG000000… Osmr      *        877 yes   no    no   
#>  8 ENSMUST00000090461.11 ENSMUSG000000… Fyb       +       2678 no    no    no   
#>  9 ENSMUST00000159604.1  ENSMUSG000000… Fyb       +        771 no    no    no   
#> 10 ENSMUST00000159714.1  ENSMUSG000000… Fyb       +       2170 no    no    no   
#> # ℹ 144 more rows
…
